%YAML 1.1
%TAG !u! tag:unity3d.com,2011:
--- !u!114 &11400000
MonoBehaviour:
  m_ObjectHideFlags: 0
  m_CorrespondingSourceObject: {fileID: 0}
  m_PrefabInstance: {fileID: 0}
  m_PrefabAsset: {fileID: 0}
  m_GameObject: {fileID: 0}
  m_Enabled: 1
  m_EditorHideFlags: 0
  m_Script: {fileID: 11500000, guid: 20c1d485503c0ee4b90f3b5ca1a34d4d, type: 3}
  m_Name: 0
  m_EditorClassIdentifier: 
  storyText: "\u0414\u043E\u0431\u0440\u043E \u043F\u043E\u0436\u0430\u043B\u043E\u0432\u0430\u0442\u044C
    \u0432 \u0443\u0432\u043B\u0435\u043A\u0430\u0442\u0435\u043B\u044C\u043D\u044B\u0439
    \u0441\u0438\u043C\u0443\u043B\u044F\u0442\u043E\u0440 \u043C\u0438\u043D\u0441\u043A\u043E\u0433\u043E
    \u043F\u0430\u0431\u043A\u0440\u043E\u0443\u043B\u0430. \u0412\u0430\u0448\u0430
    \u0437\u0430\u0434\u0430\u0447\u0430 \u043F\u0440\u043E\u0434\u0435\u0440\u0436\u0430\u0442\u044C\u0441\u044F
    \u0434\u043E \u0440\u0430\u0441\u0441\u0432\u0435\u0442\u0430 \u0438 \u043F\u043E\u043F\u0430\u0441\u0442\u044C
    \u0434\u043E\u043C\u043E\u0439. \u0412\u044B\u0431\u0438\u0440\u0430\u0439\u0442\u0435
    \u043C\u0443\u0434\u0440\u043E! \n\n\u0427\u0438\u043D-\u0447\u0438\u043D \u0438
    \u043D\u0430\u0436\u043C\u0438\u0442\u0435 1\n\np.s. \u0415\u0441\u043B\u0438
    \u0437\u0430\u0445\u043E\u0442\u0438\u0442\u0435 \u043D\u0430\u0447\u0430\u0442\u044C
    \u0441\u043D\u0430\u0447\u0430\u043B\u0430, \u043D\u0430\u0436\u043C\u0438\u0442\u0435
    \u043F\u0440\u043E\u0431\u0435\u043B"
  nextStates:
  - {fileID: 11400000, guid: c3f84ef9cb093e54a95634ba26a41c8b, type: 2}
  LocationText: 'Welcome! '
