%YAML 1.1
%TAG !u! tag:unity3d.com,2011:
--- !u!114 &11400000
MonoBehaviour:
  m_ObjectHideFlags: 0
  m_CorrespondingSourceObject: {fileID: 0}
  m_PrefabInstance: {fileID: 0}
  m_PrefabAsset: {fileID: 0}
  m_GameObject: {fileID: 0}
  m_Enabled: 1
  m_EditorHideFlags: 0
  m_Script: {fileID: 11500000, guid: 20c1d485503c0ee4b90f3b5ca1a34d4d, type: 3}
  m_Name: 1.1.1.1.1
  m_EditorClassIdentifier: 
  storyText: "\u0412\u0430\u0448\u0438 \u044D\u043B\u0435\u0433\u0430\u043D\u0442\u043D\u044B\u0435
    \u043C\u0430\u043D\u0435\u0440\u044B \u043D\u0435 \u043E\u0447\u0435\u043D\u044C
    \u0442\u043E \u0437\u0430\u0446\u0435\u043F\u0438\u043B\u0438 \u0434\u0435\u0432\u0443\u0448\u0435\u043A.
    \u0410 \u0432\u043E\u0442 \u043F\u0430\u0440\u043D\u0438, \u043A\u043E\u0442\u043E\u0440\u044B\u0435
    \u043E\u0442\u0434\u044B\u0445\u0430\u043B\u0438 \u043D\u0435\u043F\u043E\u0434\u0430\u043B\u0451\u043A\u0443,
    \u0440\u0435\u0448\u0438\u043B\u0438, \u0447\u0442\u043E \u043D\u0430\u0434\u0430\u0432\u0430\u0432
    \u0432\u0430\u043C \u043F\u043E \u0448\u0435\u0435 \u0437\u0430 \u0442\u0430\u043A\u0443\u044E
    \u0434\u0435\u0440\u0437\u043E\u0441\u0442\u044C, \u0443\u0436\u0435 \u0442\u043E\u0447\u043D\u043E
    \u043F\u0440\u043E\u0434\u043E\u043B\u0436\u0430\u0442 \u0432\u0435\u0447\u0435\u0440
    \u0432 \u043A\u043E\u043C\u043F\u0430\u043D\u0438\u0438 \u043F\u0440\u0435\u043A\u0440\u0430\u0441\u043D\u044B\u0445
    \u0434\u0430\u043C, \u0441\u043F\u0430\u0441\u0451\u043D\u043D\u044B\u0445 \u043E\u0442
    \u0442\u0430\u043A\u043E\u0433\u043E \u043D\u0435\u0434\u043E\u0441\u0442\u043E\u0439\u043D\u043E\u0433\u043E,
    \u043A\u0430\u043A \u0432\u044B.\n\n1.  \u041F\u0440\u0438\u043D\u044F\u0442\u044C
    \u0431\u043E\u0435\u0432\u0443\u044E \u0441\u0442\u043E\u0439\u043A\u0443."
  nextStates:
  - {fileID: 11400000, guid: bd33c1ee86f0c914badd97848b580dcc, type: 2}
  LocationText: "\u041D\u0430 \u043D\u0430\u0431\u0435\u0440\u0435\u0436\u043D\u043E\u0439"
