%YAML 1.1
%TAG !u! tag:unity3d.com,2011:
--- !u!114 &11400000
MonoBehaviour:
  m_ObjectHideFlags: 0
  m_CorrespondingSourceObject: {fileID: 0}
  m_PrefabInstance: {fileID: 0}
  m_PrefabAsset: {fileID: 0}
  m_GameObject: {fileID: 0}
  m_Enabled: 1
  m_EditorHideFlags: 0
  m_Script: {fileID: 11500000, guid: 20c1d485503c0ee4b90f3b5ca1a34d4d, type: 3}
  m_Name: 2.2
  m_EditorClassIdentifier: 
  storyText: "\u0422\u044B \u043D\u0435 \u0434\u043E\u0441\u0442\u0430\u0442\u043E\u0447\u043D\u043E
    \u043C\u043E\u0434\u043D\u044B\u0439, \u0433\u043E\u0432\u043E\u0440\u044F\u0442
    \u0442\u0435\u0431\u0435 \u043D\u0430 \u0432\u0445\u043E\u0434\u0435. \u041D\u0443
    \u0447\u0442\u043E, \u0432\u0441\u0435 \u043F\u0443\u0442\u0438 \u0432\u0435\u0434\u0443\u0442
    \u0432 \u0440\u0443\u0431\u043B\u0438\u043A? \u0422\u0430\u043C \u0438 \u043F\u043E\u043D\u0430\u0440\u044F\u0434\u043D\u0435\u0435
    \u0441\u0442\u0430\u043D\u0435\u0448\u044C, \u0438 \u043E\u0445\u0440\u0430\u043D\u0430
    \u0443\u0441\u0442\u0430\u0442\u044C \u0443\u0441\u043F\u0435\u0435\u0442! \n\n1.
    \u0418\u0434\u0451\u043C \u0432 \u0440\u0443\u0431\u043B\u0438\u043A"
  nextStates:
  - {fileID: 11400000, guid: e28d9c39a08a71d49b477017aab73116, type: 2}
  LocationText: "\u0425\u0443\u043B\u0438\u0433\u0430\u043D"
